{
	"staging_url": "ultramobilestaging.looker.com", 
	"staging_client_id": "4KjHfDSH69vvkzVqQVhQ", 
	"staging_client_secret": "mZh9QX3SVMcKYRV8KhB7gnV6",
	"prod_url": "ultramobile.looker.com", 
	"prod_client_id": "qqNrMD7JK7N8TfsyKbXh", 
	"prod_client_secret": "kwvzWWV9HZFQqFCq7GpbbXrJ"
}